# Blender MTL File: 'None'
# Material Count: 8

newmtl __Black_
Ns 96.078431
Ka 1.000000 1.000000 1.000000
Kd 0.000000 0.000000 0.000000
Ks 0.500000 0.500000 0.500000
Ke 0.000000 0.000000 0.000000
Ni -1.000000
d 1.000000
illum 2

newmtl __CorrogateShiny_
Ns 96.078431
Ka 1.000000 1.000000 1.000000
Kd 0.640000 0.640000 0.640000
Ks 0.500000 0.500000 0.500000
Ke 0.000000 0.000000 0.000000
Ni -1.000000
d 1.000000
illum 2
map_Kd model\\__CorrogateShiny_.jpg

newmtl __DarkBlue_
Ns 96.078431
Ka 1.000000 1.000000 1.000000
Kd 0.000000 0.000000 0.545098
Ks 0.500000 0.500000 0.500000
Ke 0.000000 0.000000 0.000000
Ni -1.000000
d 1.000000
illum 2

newmtl __Gold_
Ns 96.078431
Ka 1.000000 1.000000 1.000000
Kd 1.000000 0.843137 0.000000
Ks 0.500000 0.500000 0.500000
Ke 0.000000 0.000000 0.000000
Ni -1.000000
d 1.000000
illum 2

newmtl __LightGreen_
Ns 96.078431
Ka 1.000000 1.000000 1.000000
Kd 0.564706 0.933333 0.564706
Ks 0.500000 0.500000 0.500000
Ke 0.000000 0.000000 0.000000
Ni -1.000000
d 1.000000
illum 2

newmtl __LightSeaGreen_
Ns 96.078431
Ka 1.000000 1.000000 1.000000
Kd 0.125490 0.698039 0.666667
Ks 0.500000 0.500000 0.500000
Ke 0.000000 0.000000 0.000000
Ni -1.000000
d 1.000000
illum 2

newmtl __SteelBlue_
Ns 96.078431
Ka 1.000000 1.000000 1.000000
Kd 0.274510 0.509804 0.705882
Ks 0.500000 0.500000 0.500000
Ke 0.000000 0.000000 0.000000
Ni -1.000000
d 1.000000
illum 2

newmtl material
Ns 96.078431
Ka 1.000000 1.000000 1.000000
Kd 1.000000 1.000000 1.000000
Ks 0.500000 0.500000 0.500000
Ke 0.000000 0.000000 0.000000
Ni -1.000000
d 1.000000
illum 2
